1. Summary
Meeting title	DB
Attended participants	3
Start time	10/18/22, 10:46:29 AM
End time	10/18/22, 12:19:40 PM
Meeting duration	1h 33m 11s
Average attendance time	31m 9s

2. Participants
Name	First join	Last leave	In-meeting duration	Email	Participant ID (UPN)	Role
Diego Jauregui Salvatierra	10/18/22, 10:46:34 AM	10/18/22, 12:19:40 PM	1h 33m 6s	Diego.Jauregui@jala.university	Diego.Jauregui@jala.university	Presenter
Camilo Villalba Sanz	10/18/22, 10:49:06 AM	10/18/22, 10:49:12 AM	6s	Camilo.Villalba@jala.university	Camilo.Villalba@jala.university	Presenter
Andres Galvis Bolivar	10/18/22, 11:42:08 AM	10/18/22, 11:42:24 AM	16s	Andres.Galvis@jala.university	Andres.Galvis@jala.university	Presenter

3. In-Meeting activities
Name	Join time	Leave time	Duration	Email	Role
Diego Jauregui Salvatierra	10/18/22, 10:46:34 AM	10/18/22, 12:19:40 PM	1h 33m 6s	Diego.Jauregui@jala.university	Presenter
Camilo Villalba Sanz	10/18/22, 10:49:06 AM	10/18/22, 10:49:12 AM	6s	Camilo.Villalba@jala.university	Presenter
Andres Galvis Bolivar	10/18/22, 11:42:08 AM	10/18/22, 11:42:24 AM	16s	Andres.Galvis@jala.university	Presenter
